\relax 
\providecommand\hyper@newdestlabel[2]{}
\providecommand\HyperFirstAtBeginDocument{\AtBeginDocument}
\HyperFirstAtBeginDocument{\ifx\hyper@anchor\@undefined
\global\let\oldcontentsline\contentsline
\gdef\contentsline#1#2#3#4{\oldcontentsline{#1}{#2}{#3}}
\global\let\oldnewlabel\newlabel
\gdef\newlabel#1#2{\newlabelxx{#1}#2}
\gdef\newlabelxx#1#2#3#4#5#6{\oldnewlabel{#1}{{#2}{#3}}}
\AtEndDocument{\ifx\hyper@anchor\@undefined
\let\contentsline\oldcontentsline
\let\newlabel\oldnewlabel
\fi}
\fi}
\global\let\hyper@last\relax 
\gdef\HyperFirstAtBeginDocument#1{#1}
\providecommand\HyField@AuxAddToFields[1]{}
\providecommand\HyField@AuxAddToCoFields[2]{}
\select@language{english}
\@writefile{toc}{\select@language{english}}
\@writefile{lof}{\select@language{english}}
\@writefile{lot}{\select@language{english}}
\newlabel{index::doc}{{}{1}{}{section*.2}{}}
\@writefile{toc}{\contentsline {chapter}{\numberline {1}Introduction}{3}{chapter.1}}
\@writefile{lof}{\addvspace {10\p@ }}
\@writefile{lot}{\addvspace {10\p@ }}
\newlabel{index:introduction}{{1}{3}{Introduction}{chapter.1}{}}
\newlabel{index:chapterintroduction}{{1}{3}{Introduction}{chapter.1}{}}
\@writefile{toc}{\contentsline {section}{\numberline {1.1}Project information}{3}{section.1.1}}
\newlabel{intro:project-information}{{1.1}{3}{Project information}{section.1.1}{}}
\newlabel{intro::doc}{{1.1}{3}{Project information}{section.1.1}{}}
\@writefile{toc}{\contentsline {section}{\numberline {1.2}Background}{4}{section.1.2}}
\newlabel{intro:background}{{1.2}{4}{Background}{section.1.2}{}}
\@writefile{toc}{\contentsline {chapter}{\numberline {2}General Information}{5}{chapter.2}}
\@writefile{lof}{\addvspace {10\p@ }}
\@writefile{lot}{\addvspace {10\p@ }}
\newlabel{index:general-information}{{2}{5}{General Information}{chapter.2}{}}
\newlabel{index:chapterinformation}{{2}{5}{General Information}{chapter.2}{}}
\@writefile{toc}{\contentsline {section}{\numberline {2.1}qplot}{5}{section.2.1}}
\newlabel{about:qplot}{{2.1}{5}{qplot}{section.2.1}{}}
\newlabel{about::doc}{{2.1}{5}{qplot}{section.2.1}{}}
\@writefile{toc}{\contentsline {subsection}{\numberline {2.1.1}Features}{5}{subsection.2.1.1}}
\newlabel{about:features}{{2.1.1}{5}{Features}{subsection.2.1.1}{}}
\@writefile{toc}{\contentsline {subsection}{\numberline {2.1.2}Installation}{5}{subsection.2.1.2}}
\newlabel{about:installation}{{2.1.2}{5}{Installation}{subsection.2.1.2}{}}
\@writefile{toc}{\contentsline {subsection}{\numberline {2.1.3}Download of WorldBorders}{6}{subsection.2.1.3}}
\newlabel{about:download-of-worldborders}{{2.1.3}{6}{Download of WorldBorders}{subsection.2.1.3}{}}
\@writefile{toc}{\contentsline {subsection}{\numberline {2.1.4}License}{6}{subsection.2.1.4}}
\newlabel{about:license}{{2.1.4}{6}{License}{subsection.2.1.4}{}}
\@writefile{toc}{\contentsline {subsection}{\numberline {2.1.5}The Team}{6}{subsection.2.1.5}}
\newlabel{about:the-team}{{2.1.5}{6}{The Team}{subsection.2.1.5}{}}
\@writefile{toc}{\contentsline {chapter}{\numberline {3}Quickplot Function}{7}{chapter.3}}
\@writefile{lof}{\addvspace {10\p@ }}
\@writefile{lot}{\addvspace {10\p@ }}
\newlabel{index:quickplot-function}{{3}{7}{Quickplot Function}{chapter.3}{}}
\newlabel{index:chapterdatastructure}{{3}{7}{Quickplot Function}{chapter.3}{}}
\@writefile{toc}{\contentsline {section}{\numberline {3.1}Quickreference:}{7}{section.3.1}}
\newlabel{overview:quickreference}{{3.1}{7}{Quickreference:}{section.3.1}{}}
\newlabel{overview::doc}{{3.1}{7}{Quickreference:}{section.3.1}{}}
\@writefile{toc}{\contentsline {chapter}{\numberline {4}Usage}{9}{chapter.4}}
\@writefile{lof}{\addvspace {10\p@ }}
\@writefile{lot}{\addvspace {10\p@ }}
\newlabel{index:usage}{{4}{9}{Usage}{chapter.4}{}}
\@writefile{toc}{\contentsline {section}{\numberline {4.1}Usage}{9}{section.4.1}}
\newlabel{usage:usage}{{4.1}{9}{Usage}{section.4.1}{}}
\newlabel{usage::doc}{{4.1}{9}{Usage}{section.4.1}{}}
\@writefile{toc}{\contentsline {section}{\numberline {4.2}Example 1 \sphinxhyphen {} Simple plot}{9}{section.4.2}}
\newlabel{usage:example-1-simple-plot}{{4.2}{9}{Example 1 \sphinxhyphen {} Simple plot}{section.4.2}{}}
\@writefile{toc}{\contentsline {section}{\numberline {4.3}Example 2 \sphinxhyphen {} Cursor usage with points}{11}{section.4.3}}
\newlabel{usage:example-2-cursor-usage-with-points}{{4.3}{11}{Example 2 \sphinxhyphen {} Cursor usage with points}{section.4.3}{}}
\@writefile{toc}{\contentsline {section}{\numberline {4.4}Example 3 \sphinxhyphen {} Original pipeline paths}{13}{section.4.4}}
\newlabel{usage:example-3-original-pipeline-paths}{{4.4}{13}{Example 3 \sphinxhyphen {} Original pipeline paths}{section.4.4}{}}
\@writefile{toc}{\contentsline {section}{\numberline {4.5}Example 4 \sphinxhyphen {} Overplotting}{15}{section.4.5}}
\newlabel{usage:example-4-overplotting}{{4.5}{15}{Example 4 \sphinxhyphen {} Overplotting}{section.4.5}{}}
\@writefile{toc}{\contentsline {section}{\numberline {4.6}Example 5 \sphinxhyphen {} Line thickness and line color}{16}{section.4.6}}
\newlabel{usage:example-5-line-thickness-and-line-color}{{4.6}{16}{Example 5 \sphinxhyphen {} Line thickness and line color}{section.4.6}{}}
\@writefile{toc}{\contentsline {section}{\numberline {4.7}Example 6 \sphinxhyphen {} Multi lines}{17}{section.4.7}}
\newlabel{usage:example-6-multi-lines}{{4.7}{17}{Example 6 \sphinxhyphen {} Multi lines}{section.4.7}{}}
